﻿the 48
of 27
to 26
in 25
refugees 23
and 22
have 17
been 10
countries 9
a 8
crisis 7
this 7
europe 6
european 6
universities 6
we 6
are 5
regarding 5
several 5
that 5
their 5
them 5
at 4
current 4
for 4
has 4
is 4
number 4
on 4
role 4
such 4
2015 3
active 3
an 3
as 3
be 3
computer 3
divided 3
many 3
not 3
other 3
taking 3
these 3
those 3
welcome 3
activity 2
borders 2
citizens 2
clear 2
describe 2
due 2
elections 2
expected 2
find 2
following 2
from 2
further 2
furthermore 2
hand 2
increase 2
increasing 2
intolerance 2
iraq 2
july 2
least 2
like 2
main 2
more 2
neighboring 2
one 2
opinion 2
oppose 2
or 2
our 2
parties 2
political 2
position 2
problems 2
project 2
public 2
questions 2
refugee 2
right-wing 2
science 2
should 2
shown 2
situation 2
situations 2
solidarity 2
solutions 2
states 2
students 2
syria 2
taken 2
technology 2
thousands 2
tolerance 2
tu 2
unhcr 2
university 2
using 2
vienna 2
viewpoint 2
wars 2
was 2
welcoming 2
when 2
who 2
wien 2
will 2
young 2
14-18 1
1g8ly0k 1
2016 1
9 1
able 1
according 1
act 1
address 1
afghanistan 1
african 1
allowed 1
also 1
although 1
among 1
another 1
attention 1
back 1
become 1
best 1
between 1
bit 1
boats 1
briefly 1
but 1
by 1
case 1
cases 1
computer-related 1
considering 1
contacts 1
continuous 1
convinced 1
could 1
courses 1
crises 1
culminated 1
deeply 1
different 1
discussion 1
division 1
early 1
east 1
encourage 1
enormous 1
enough 1
equally 1
events 1
exceeded 1
express 1
faculty 1
favorable 1
feasible 1
fled 1
fleeing 1
flow 1
four 1
gain 1
gained 1
get 1
give 1
goal 1
goals 1
good 1
governments 1
group 1
had 1
help 1
here 1
however 1
http 1
hundreds 1
important 1
including 1
influence 1
informatics 1
inhabitants 1
initiated 1
inside 1
inspire 1
institutions 1
into 1
issue 1
issues 1
knowledge 1
leaders 1
life 1
local 1
lost 1
ly 1
made 1
major 1
make 1
media 1
mentioned 1
message 1
middle 1
million 1
mis 1
months 1
most 1
observed 1
old 1
opened 1
opening 1
others 1
overwhelmed 1
popularity 1
press 1
problem 1
professors 1
promote 1
promotes 1
puts 1
reach 1
received 1
reflect 1
regional 1
regions 1
releases 1
reported 1
reputation 1
sad 1
say 1
sense 1
sensitized 1
serious 1
signal 1
significant 1
similarly 1
societies 1
society 1
spreading 1
study 1
substantial 1
summer 1
support 1
syrian 1
take 1
tenser 1
they 1
top 1
topic 1
total 1
toward 1
tragic 1
tremendously 1
trucks 1
unaccompanied 1
unfortunately 1
volunteering 1
votes 1
way 1
what 1
whereas 1
with 1
would 1
written 1
year 1
years 1
yet 1
